<?xml version="1.0" standalone="no"?>
<!DOCTYPE svg PUBLIC "-//W3C//DTD SVG 20010904//EN"
 "http://www.w3.org/TR/2001/REC-SVG-20010904/DTD/svg10.dtd">
<svg version="1.0" xmlns="http://www.w3.org/2000/svg"
 width="358.000000pt" height="262.000000pt" viewBox="0 0 358.000000 262.000000"
 preserveAspectRatio="xMidYMid meet">
<metadata>
Created by potrace 1.15, written by Peter Selinger 2001-2017
</metadata>
<g transform="translate(0.000000,262.000000) scale(0.100000,-0.100000)"
fill="#000000" stroke="none">
<path d="M1487 2029 c-317 -33 -589 -229 -721 -521 -151 -334 -83 -726 173
-991 259 -269 668 -346 1009 -191 159 72 314 207 392 341 l35 60 155 7 c85 3
266 6 402 6 211 0 249 2 262 16 14 13 16 63 16 390 0 370 0 374 -22 396 l-21
21 -393 -6 -393 -7 -55 83 c-183 277 -508 431 -839 396z m233 -130 c36 -5 103
-25 149 -44 294 -120 481 -397 481 -715 0 -154 -46 -309 -127 -428 -49 -72
-143 -166 -215 -215 -76 -52 -208 -104 -298 -118 -92 -14 -265 -6 -337 16
-150 45 -292 138 -389 253 -58 70 -120 188 -149 282 -22 75 -30 247 -16 340
14 88 66 222 117 298 45 69 147 171 216 216 68 45 208 103 279 115 76 12 213
13 289 0z m1370 -749 l0 -290 -325 0 c-191 0 -325 4 -325 9 0 5 8 38 17 73 25
93 23 318 -4 415 l-21 73 197 3 c108 1 256 3 329 5 l132 2 0 -290z"/>
</g>
</svg>
