<?xml version="1.0" encoding="UTF-8" standalone="no"?>
<!-- Created with Inkscape (http://www.inkscape.org/) -->

<svg
   xmlns:dc="http://purl.org/dc/elements/1.1/"
   xmlns:cc="http://creativecommons.org/ns#"
   xmlns:rdf="http://www.w3.org/1999/02/22-rdf-syntax-ns#"
   xmlns:svg="http://www.w3.org/2000/svg"
   xmlns="http://www.w3.org/2000/svg"
   xmlns:sodipodi="http://sodipodi.sourceforge.net/DTD/sodipodi-0.dtd"
   xmlns:inkscape="http://www.inkscape.org/namespaces/inkscape"
   width="200"
   height="200"
   viewBox="0 0 200 200"
   id="svg14848"
   version="1.1"
   inkscape:version="0.91 r13725"
   sodipodi:docname="twin.svg">
  <defs
     id="defs14850" />
  <sodipodi:namedview
     id="base"
     pagecolor="#ffffff"
     bordercolor="#666666"
     borderopacity="1.0"
     inkscape:pageopacity="0.0"
     inkscape:pageshadow="2"
     inkscape:zoom="2"
     inkscape:cx="146.88503"
     inkscape:cy="107.23615"
     inkscape:document-units="px"
     inkscape:current-layer="layer1"
     showgrid="false"
     units="px"
     inkscape:window-width="1366"
     inkscape:window-height="715"
     inkscape:window-x="-8"
     inkscape:window-y="-8"
     inkscape:window-maximized="1" />
  <metadata
     id="metadata14853">
    <rdf:RDF>
      <cc:Work
         rdf:about="">
        <dc:format>image/svg+xml</dc:format>
        <dc:type
           rdf:resource="http://purl.org/dc/dcmitype/StillImage" />
        <dc:title></dc:title>
      </cc:Work>
    </rdf:RDF>
  </metadata>
  <g
     inkscape:label="Layer 1"
     inkscape:groupmode="layer"
     id="layer1"
     transform="translate(0,-852.36216)">
    <rect
       inkscape:transform-center-y="-0.052466761"
       inkscape:transform-center-x="-29.552922"
       style="opacity:1;fill:#999999;fill-opacity:1;fill-rule:nonzero;stroke:#727272;stroke-width:2.80999994;stroke-linecap:round;stroke-linejoin:round;stroke-miterlimit:12.0257225;stroke-dasharray:none;stroke-dashoffset:0;stroke-opacity:1"
       id="rect8980-6-3-4-95-6-7-7-5-6-8-4"
       width="54.643051"
       height="24.997843"
       x="-1069.7518"
       y="-260.55386"
       transform="matrix(-0.99999968,7.9568684e-4,-6.8997533e-4,-0.99999976,0,0)" />
    <rect
       inkscape:transform-center-y="-0.052539566"
       inkscape:transform-center-x="-29.552878"
       style="opacity:1;fill:#999999;fill-opacity:1;fill-rule:nonzero;stroke:#727272;stroke-width:2.80999994;stroke-linecap:round;stroke-linejoin:round;stroke-miterlimit:12.0257225;stroke-dasharray:none;stroke-dashoffset:0;stroke-opacity:1"
       id="rect8980-6-3-4-95-6-7-7-5-6-8-8-6"
       width="45.870605"
       height="34.236362"
       x="-1060.9794"
       y="-265.14706"
       transform="matrix(-0.99999968,7.9568684e-4,-6.8997533e-4,-0.99999976,0,0)" />
    <circle
       transform="matrix(-0.83356224,-0.55242555,0.55242555,-0.83356224,0,0)"
       style="opacity:1;fill:#00b2e1;fill-opacity:1;fill-rule:nonzero;stroke:#0085a8;stroke-width:2.80999994;stroke-linecap:round;stroke-linejoin:round;stroke-miterlimit:12.0257225;stroke-dasharray:none;stroke-dashoffset:0;stroke-opacity:1"
       id="circle8982-7-3-4-1-3-7-6-5-6-39-9"
       cy="348.4144"
       cx="-972.67554"
       r="30.586662" />
    <rect
       inkscape:transform-center-y="-0.052466761"
       inkscape:transform-center-x="-29.552922"
       style="opacity:1;fill:#999999;fill-opacity:1;fill-rule:nonzero;stroke:#727272;stroke-width:2.80999994;stroke-linecap:round;stroke-linejoin:round;stroke-miterlimit:12.0257225;stroke-dasharray:none;stroke-dashoffset:0;stroke-opacity:1"
       id="rect8980-6-3-4-95-6-7-7-5-6-8-4-1"
       width="54.643051"
       height="24.997843"
       x="-1069.7518"
       y="-260.55389"
       transform="matrix(-0.99999968,7.9568684e-4,-6.8997533e-4,-0.99999976,0,0)" />
    <rect
       inkscape:transform-center-y="-0.052539566"
       inkscape:transform-center-x="-29.552878"
       style="opacity:1;fill:#999999;fill-opacity:1;fill-rule:nonzero;stroke:#727272;stroke-width:2.80999994;stroke-linecap:round;stroke-linejoin:round;stroke-miterlimit:12.0257225;stroke-dasharray:none;stroke-dashoffset:0;stroke-opacity:1"
       id="rect8980-6-3-4-95-6-7-7-5-6-8-8-6-1"
       width="45.870605"
       height="34.236362"
       x="-1060.9794"
       y="-265.14709"
       transform="matrix(-0.99999968,7.9568684e-4,-6.8997533e-4,-0.99999976,0,0)" />
    <circle
       transform="matrix(-0.83356224,-0.55242555,0.55242555,-0.83356224,0,0)"
       style="opacity:1;fill:#00b2e1;fill-opacity:1;fill-rule:nonzero;stroke:#0085a8;stroke-width:2.80999994;stroke-linecap:round;stroke-linejoin:round;stroke-miterlimit:12.0257225;stroke-dasharray:none;stroke-dashoffset:0;stroke-opacity:1"
       id="circle8982-7-3-4-1-3-7-6-5-6-39-9-6"
       cy="348.41437"
       cx="-972.67548"
       r="30.586662" />
    <rect
       inkscape:transform-center-y="-0.052466761"
       inkscape:transform-center-x="-29.552922"
       style="opacity:1;fill:#999999;fill-opacity:1;fill-rule:nonzero;stroke:#727272;stroke-width:2.80999994;stroke-linecap:round;stroke-linejoin:round;stroke-miterlimit:12.0257225;stroke-dasharray:none;stroke-dashoffset:0;stroke-opacity:1"
       id="rect8980-6-3-4-95-6-7-7-5-6-8-4-5"
       width="54.643051"
       height="24.997843"
       x="-1069.7518"
       y="-260.55386"
       transform="matrix(-0.99999968,7.9568684e-4,-6.8997533e-4,-0.99999976,0,0)" />
    <rect
       inkscape:transform-center-y="-0.052539566"
       inkscape:transform-center-x="-29.552878"
       style="opacity:1;fill:#999999;fill-opacity:1;fill-rule:nonzero;stroke:#727272;stroke-width:2.80999994;stroke-linecap:round;stroke-linejoin:round;stroke-miterlimit:12.0257225;stroke-dasharray:none;stroke-dashoffset:0;stroke-opacity:1"
       id="rect8980-6-3-4-95-6-7-7-5-6-8-8-6-7"
       width="45.870605"
       height="34.236362"
       x="-1060.9794"
       y="-265.14706"
       transform="matrix(-0.99999968,7.9568684e-4,-6.8997533e-4,-0.99999976,0,0)" />
    <circle
       transform="matrix(-0.83356224,-0.55242555,0.55242555,-0.83356224,0,0)"
       style="opacity:1;fill:#00b2e1;fill-opacity:1;fill-rule:nonzero;stroke:#0085a8;stroke-width:2.80999994;stroke-linecap:round;stroke-linejoin:round;stroke-miterlimit:12.0257225;stroke-dasharray:none;stroke-dashoffset:0;stroke-opacity:1"
       id="circle8982-7-3-4-1-3-7-6-5-6-39-9-3"
       cy="348.4144"
       cx="-972.67554"
       r="30.586662" />
    <rect
       inkscape:transform-center-y="-0.052466761"
       inkscape:transform-center-x="-29.552922"
       style="opacity:1;fill:#999999;fill-opacity:1;fill-rule:nonzero;stroke:#727272;stroke-width:2.80999994;stroke-linecap:round;stroke-linejoin:round;stroke-miterlimit:12.0257225;stroke-dasharray:none;stroke-dashoffset:0;stroke-opacity:1"
       id="rect8980-6-3-4-95-6-7-7-5-6-8-4-8"
       width="54.643051"
       height="24.997843"
       x="-1069.7518"
       y="-260.55383"
       transform="matrix(-0.99999968,7.9568684e-4,-6.8997533e-4,-0.99999976,0,0)" />
    <rect
       inkscape:transform-center-y="-0.052539566"
       inkscape:transform-center-x="-29.552878"
       style="opacity:1;fill:#999999;fill-opacity:1;fill-rule:nonzero;stroke:#727272;stroke-width:2.80999994;stroke-linecap:round;stroke-linejoin:round;stroke-miterlimit:12.0257225;stroke-dasharray:none;stroke-dashoffset:0;stroke-opacity:1"
       id="rect8980-6-3-4-95-6-7-7-5-6-8-8-6-4"
       width="45.870605"
       height="34.236362"
       x="-1060.9794"
       y="-265.14703"
       transform="matrix(-0.99999968,7.9568684e-4,-6.8997533e-4,-0.99999976,0,0)" />
    <circle
       transform="matrix(-0.83356224,-0.55242555,0.55242555,-0.83356224,0,0)"
       style="opacity:1;fill:#00b2e1;fill-opacity:1;fill-rule:nonzero;stroke:#0085a8;stroke-width:2.80999994;stroke-linecap:round;stroke-linejoin:round;stroke-miterlimit:12.0257225;stroke-dasharray:none;stroke-dashoffset:0;stroke-opacity:1"
       id="circle8982-7-3-4-1-3-7-6-5-6-39-9-1"
       cy="348.4144"
       cx="-972.67554"
       r="30.586662" />
    <rect
       inkscape:transform-center-y="-0.052466761"
       inkscape:transform-center-x="-29.552922"
       style="opacity:1;fill:#999999;fill-opacity:1;fill-rule:nonzero;stroke:#727272;stroke-width:2.80999994;stroke-linecap:round;stroke-linejoin:round;stroke-miterlimit:12.0257225;stroke-dasharray:none;stroke-dashoffset:0;stroke-opacity:1"
       id="rect8980-6-3-4-95-6-7-7-5-6-8-4-4"
       width="54.643051"
       height="24.997843"
       x="-1069.7518"
       y="-260.55383"
       transform="matrix(-0.99999968,7.9568684e-4,-6.8997533e-4,-0.99999976,0,0)" />
    <rect
       inkscape:transform-center-y="-0.052539566"
       inkscape:transform-center-x="-29.552878"
       style="opacity:1;fill:#999999;fill-opacity:1;fill-rule:nonzero;stroke:#727272;stroke-width:2.80999994;stroke-linecap:round;stroke-linejoin:round;stroke-miterlimit:12.0257225;stroke-dasharray:none;stroke-dashoffset:0;stroke-opacity:1"
       id="rect8980-6-3-4-95-6-7-7-5-6-8-8-6-8"
       width="45.870605"
       height="34.236362"
       x="-1060.9794"
       y="-265.14703"
       transform="matrix(-0.99999968,7.9568684e-4,-6.8997533e-4,-0.99999976,0,0)" />
    <circle
       transform="matrix(-0.83356224,-0.55242555,0.55242555,-0.83356224,0,0)"
       style="opacity:1;fill:#00b2e1;fill-opacity:1;fill-rule:nonzero;stroke:#0085a8;stroke-width:2.80999994;stroke-linecap:round;stroke-linejoin:round;stroke-miterlimit:12.0257225;stroke-dasharray:none;stroke-dashoffset:0;stroke-opacity:1"
       id="circle8982-7-3-4-1-3-7-6-5-6-39-9-2"
       cy="348.4144"
       cx="-972.67554"
       r="30.586662" />
    <rect
       inkscape:transform-center-y="-0.052466761"
       inkscape:transform-center-x="-29.552922"
       style="opacity:1;fill:#999999;fill-opacity:1;fill-rule:nonzero;stroke:#727272;stroke-width:2.80999994;stroke-linecap:round;stroke-linejoin:round;stroke-miterlimit:12.0257225;stroke-dasharray:none;stroke-dashoffset:0;stroke-opacity:1"
       id="rect8980-6-3-4-95-6-7-7-5-6-8-4-2"
       width="54.643051"
       height="24.997843"
       x="-1069.7517"
       y="-260.55386"
       transform="matrix(-0.99999968,7.9568684e-4,-6.8997533e-4,-0.99999976,0,0)" />
    <rect
       inkscape:transform-center-y="-0.052539566"
       inkscape:transform-center-x="-29.552878"
       style="opacity:1;fill:#999999;fill-opacity:1;fill-rule:nonzero;stroke:#727272;stroke-width:2.80999994;stroke-linecap:round;stroke-linejoin:round;stroke-miterlimit:12.0257225;stroke-dasharray:none;stroke-dashoffset:0;stroke-opacity:1"
       id="rect8980-6-3-4-95-6-7-7-5-6-8-8-6-9"
       width="45.870605"
       height="34.236362"
       x="-1060.9792"
       y="-265.14706"
       transform="matrix(-0.99999968,7.9568684e-4,-6.8997533e-4,-0.99999976,0,0)" />
    <circle
       transform="matrix(-0.83356224,-0.55242555,0.55242555,-0.83356224,0,0)"
       style="opacity:1;fill:#00b2e1;fill-opacity:1;fill-rule:nonzero;stroke:#0085a8;stroke-width:2.80999994;stroke-linecap:round;stroke-linejoin:round;stroke-miterlimit:12.0257225;stroke-dasharray:none;stroke-dashoffset:0;stroke-opacity:1"
       id="circle8982-7-3-4-1-3-7-6-5-6-39-9-4"
       cy="348.41437"
       cx="-972.67554"
       r="30.586662" />
    <rect
       inkscape:transform-center-y="-0.052466761"
       inkscape:transform-center-x="-29.552922"
       style="opacity:1;fill:#999999;fill-opacity:1;fill-rule:nonzero;stroke:#727272;stroke-width:2.80999994;stroke-linecap:round;stroke-linejoin:round;stroke-miterlimit:12.0257225;stroke-dasharray:none;stroke-dashoffset:0;stroke-opacity:1"
       id="rect8980-6-3-4-95-6-7-7-5-6-8-4-56"
       width="54.643051"
       height="24.997843"
       x="-1069.7518"
       y="-260.55383"
       transform="matrix(-0.99999968,7.9568684e-4,-6.8997533e-4,-0.99999976,0,0)" />
    <rect
       inkscape:transform-center-y="-0.052539566"
       inkscape:transform-center-x="-29.552878"
       style="opacity:1;fill:#999999;fill-opacity:1;fill-rule:nonzero;stroke:#727272;stroke-width:2.80999994;stroke-linecap:round;stroke-linejoin:round;stroke-miterlimit:12.0257225;stroke-dasharray:none;stroke-dashoffset:0;stroke-opacity:1"
       id="rect8980-6-3-4-95-6-7-7-5-6-8-8-6-19"
       width="45.870605"
       height="34.236362"
       x="-1060.9794"
       y="-265.14703"
       transform="matrix(-0.99999968,7.9568684e-4,-6.8997533e-4,-0.99999976,0,0)" />
    <circle
       transform="matrix(-0.83356224,-0.55242555,0.55242555,-0.83356224,0,0)"
       style="opacity:1;fill:#00b2e1;fill-opacity:1;fill-rule:nonzero;stroke:#0085a8;stroke-width:2.80999994;stroke-linecap:round;stroke-linejoin:round;stroke-miterlimit:12.0257225;stroke-dasharray:none;stroke-dashoffset:0;stroke-opacity:1"
       id="circle8982-7-3-4-1-3-7-6-5-6-39-9-7"
       cy="348.4144"
       cx="-972.67554"
       r="30.586662" />
    <rect
       inkscape:transform-center-y="-0.052466761"
       inkscape:transform-center-x="-29.552922"
       style="opacity:1;fill:#999999;fill-opacity:1;fill-rule:nonzero;stroke:#727272;stroke-width:2.80999994;stroke-linecap:round;stroke-linejoin:round;stroke-miterlimit:12.0257225;stroke-dasharray:none;stroke-dashoffset:0;stroke-opacity:1"
       id="rect8980-6-3-4-95-6-7-7-5-6-8-4-23"
       width="54.643051"
       height="24.997843"
       x="-1069.7518"
       y="-260.55386"
       transform="matrix(-0.99999968,7.9568684e-4,-6.8997533e-4,-0.99999976,0,0)" />
    <rect
       inkscape:transform-center-y="-0.052539566"
       inkscape:transform-center-x="-29.552878"
       style="opacity:1;fill:#999999;fill-opacity:1;fill-rule:nonzero;stroke:#727272;stroke-width:2.80999994;stroke-linecap:round;stroke-linejoin:round;stroke-miterlimit:12.0257225;stroke-dasharray:none;stroke-dashoffset:0;stroke-opacity:1"
       id="rect8980-6-3-4-95-6-7-7-5-6-8-8-6-48"
       width="45.870605"
       height="34.236362"
       x="-1060.9792"
       y="-265.14706"
       transform="matrix(-0.99999968,7.9568684e-4,-6.8997533e-4,-0.99999976,0,0)" />
    <circle
       transform="matrix(-0.83356224,-0.55242555,0.55242555,-0.83356224,0,0)"
       style="opacity:1;fill:#00b2e1;fill-opacity:1;fill-rule:nonzero;stroke:#0085a8;stroke-width:2.80999994;stroke-linecap:round;stroke-linejoin:round;stroke-miterlimit:12.0257225;stroke-dasharray:none;stroke-dashoffset:0;stroke-opacity:1"
       id="circle8982-7-3-4-1-3-7-6-5-6-39-9-23"
       cy="348.4144"
       cx="-972.67554"
       r="30.586662" />
    <rect
       inkscape:transform-center-y="-0.052466761"
       inkscape:transform-center-x="-29.552922"
       style="opacity:1;fill:#999999;fill-opacity:1;fill-rule:nonzero;stroke:#727272;stroke-width:2.80999994;stroke-linecap:round;stroke-linejoin:round;stroke-miterlimit:12.0257225;stroke-dasharray:none;stroke-dashoffset:0;stroke-opacity:1"
       id="rect8980-6-3-4-95-6-7-7-5-6-8-4-21"
       width="54.643051"
       height="24.997843"
       x="-1069.7518"
       y="-260.55383"
       transform="matrix(-0.99999968,7.9568684e-4,-6.8997533e-4,-0.99999976,0,0)" />
    <rect
       inkscape:transform-center-y="-0.052539566"
       inkscape:transform-center-x="-29.552878"
       style="opacity:1;fill:#999999;fill-opacity:1;fill-rule:nonzero;stroke:#727272;stroke-width:2.80999994;stroke-linecap:round;stroke-linejoin:round;stroke-miterlimit:12.0257225;stroke-dasharray:none;stroke-dashoffset:0;stroke-opacity:1"
       id="rect8980-6-3-4-95-6-7-7-5-6-8-8-6-97"
       width="45.870605"
       height="34.236362"
       x="-1060.9794"
       y="-265.14703"
       transform="matrix(-0.99999968,7.9568684e-4,-6.8997533e-4,-0.99999976,0,0)" />
    <circle
       transform="matrix(-0.83356224,-0.55242555,0.55242555,-0.83356224,0,0)"
       style="opacity:1;fill:#00b2e1;fill-opacity:1;fill-rule:nonzero;stroke:#0085a8;stroke-width:2.80999994;stroke-linecap:round;stroke-linejoin:round;stroke-miterlimit:12.0257225;stroke-dasharray:none;stroke-dashoffset:0;stroke-opacity:1"
       id="circle8982-7-3-4-1-3-7-6-5-6-39-9-5"
       cy="348.4144"
       cx="-972.67554"
       r="30.586662" />
    <path
       style="color:#000000;font-style:normal;font-variant:normal;font-weight:normal;font-stretch:normal;font-size:medium;line-height:normal;font-family:sans-serif;text-indent:0;text-align:start;text-decoration:none;text-decoration-line:none;text-decoration-style:solid;text-decoration-color:#000000;letter-spacing:normal;word-spacing:normal;text-transform:none;direction:ltr;block-progression:tb;writing-mode:lr-tb;baseline-shift:baseline;text-anchor:start;white-space:normal;clip-rule:nonzero;display:inline;overflow:visible;visibility:visible;opacity:1;isolation:auto;mix-blend-mode:normal;color-interpolation:sRGB;color-interpolation-filters:linearRGB;solid-color:#000000;solid-opacity:1;fill:#727272;fill-opacity:1;fill-rule:nonzero;stroke:none;stroke-width:2.80999994;stroke-linecap:round;stroke-linejoin:round;stroke-miterlimit:12.0257225;stroke-dasharray:none;stroke-dashoffset:0;stroke-opacity:1;color-rendering:auto;image-rendering:auto;shape-rendering:auto;text-rendering:auto;enable-background:accumulate"
       d="m 157.75544,950.80965 c 0.77538,0 1.40424,-0.6281 1.40522,-1.4035 l 0.0168,-25.416 c 4e-5,-0.7754 -0.628,-1.4042 -1.40338,-1.4051 l -54.61913,-0.031 c -0.77537,0 -1.40423,0.6281 -1.40521,1.4035 l -0.0168,25.416 c -4e-5,0.7754 0.62799,1.4042 1.40337,1.4051 z"
       id="rect8980-6-3-4-95-6-2-6-5-9-9"
       inkscape:connector-curvature="0"
       sodipodi:nodetypes="ccccccccc" />
    <path
       style="color:#000000;font-style:normal;font-variant:normal;font-weight:normal;font-stretch:normal;font-size:medium;line-height:normal;font-family:sans-serif;text-indent:0;text-align:start;text-decoration:none;text-decoration-line:none;text-decoration-style:solid;text-decoration-color:#000000;letter-spacing:normal;word-spacing:normal;text-transform:none;direction:ltr;block-progression:tb;writing-mode:lr-tb;baseline-shift:baseline;text-anchor:start;white-space:normal;clip-rule:nonzero;display:inline;overflow:visible;visibility:visible;opacity:1;isolation:auto;mix-blend-mode:normal;color-interpolation:sRGB;color-interpolation-filters:linearRGB;solid-color:#000000;solid-opacity:1;fill:#727272;fill-opacity:1;fill-rule:nonzero;stroke:none;stroke-width:2.80999994;stroke-linecap:round;stroke-linejoin:round;stroke-miterlimit:12.0257225;stroke-dasharray:none;stroke-dashoffset:0;stroke-opacity:1;color-rendering:auto;image-rendering:auto;shape-rendering:auto;text-rendering:auto;enable-background:accumulate"
       d="m 157.75427,982.17095 c 0.77539,0 1.40426,-0.6281 1.40523,-1.4035 l 0.0168,-25.416 c 0.001,-0.7761 -0.62723,-1.4061 -1.40337,-1.407 l -54.61913,-0.031 c -0.77614,0 -1.40532,0.6293 -1.40522,1.4054 l -0.0168,25.4156 c -5e-5,0.7754 0.62798,1.4042 1.40336,1.4051 z"
       id="rect8980-6-3-4-95-6-2-6-6-6-9-3"
       inkscape:connector-curvature="0"
       sodipodi:nodetypes="ccccccccc" />
    <path
       inkscape:connector-curvature="0"
       style="opacity:1;fill:#999999;fill-opacity:1;fill-rule:nonzero;stroke:none;stroke-width:2.80999994;stroke-linecap:round;stroke-linejoin:round;stroke-miterlimit:12.0257225;stroke-dasharray:none;stroke-dashoffset:0;stroke-opacity:1"
       d="m 104.55667,925.36609 -0.0137,22.6055 51.80859,0.029 0.0137,-22.6055 -51.80859,-0.029 z"
       id="rect8980-6-3-4-95-6-2-6-5-9-9-3" />
    <path
       inkscape:connector-curvature="0"
       style="opacity:1;fill:#999999;fill-opacity:1;fill-rule:nonzero;stroke:none;stroke-width:2.80999994;stroke-linecap:round;stroke-linejoin:round;stroke-miterlimit:12.0257225;stroke-dasharray:none;stroke-dashoffset:0;stroke-opacity:1"
       d="m 104.55862,956.72549 -0.0156,22.6054 51.80859,0.029 0.0156,-22.6054 -51.8086,-0.029 z"
       id="rect8980-6-3-4-95-6-2-6-6-6-9-3-7" />
    <rect
       inkscape:transform-center-y="-0.052466761"
       inkscape:transform-center-x="-29.552922"
       style="opacity:1;fill:#999999;fill-opacity:1;fill-rule:nonzero;stroke:#727272;stroke-width:2.80999994;stroke-linecap:round;stroke-linejoin:round;stroke-miterlimit:12.0257225;stroke-dasharray:none;stroke-dashoffset:0;stroke-opacity:1"
       id="rect8980-6-3-4-95-6-7-7-5-6-8-4-6"
       width="54.643051"
       height="24.997843"
       x="-1069.7518"
       y="-260.55389"
       transform="matrix(-0.99999968,7.9568684e-4,-6.8997533e-4,-0.99999976,0,0)" />
    <rect
       inkscape:transform-center-y="-0.052539566"
       inkscape:transform-center-x="-29.552878"
       style="opacity:1;fill:#999999;fill-opacity:1;fill-rule:nonzero;stroke:#727272;stroke-width:2.80999994;stroke-linecap:round;stroke-linejoin:round;stroke-miterlimit:12.0257225;stroke-dasharray:none;stroke-dashoffset:0;stroke-opacity:1"
       id="rect8980-6-3-4-95-6-7-7-5-6-8-8-6-81"
       width="45.870605"
       height="34.236362"
       x="-1060.9794"
       y="-265.14709"
       transform="matrix(-0.99999968,7.9568684e-4,-6.8997533e-4,-0.99999976,0,0)" />
    <circle
       transform="matrix(-0.83356224,-0.55242555,0.55242555,-0.83356224,0,0)"
       style="opacity:1;fill:#00b2e1;fill-opacity:1;fill-rule:nonzero;stroke:#0085a8;stroke-width:2.80999994;stroke-linecap:round;stroke-linejoin:round;stroke-miterlimit:12.0257225;stroke-dasharray:none;stroke-dashoffset:0;stroke-opacity:1"
       id="circle8982-7-3-4-1-3-7-6-5-6-39-9-69"
       cy="348.4144"
       cx="-972.67554"
       r="30.586662" />
    <path
       style="color:#000000;font-style:normal;font-variant:normal;font-weight:normal;font-stretch:normal;font-size:medium;line-height:normal;font-family:sans-serif;text-indent:0;text-align:start;text-decoration:none;text-decoration-line:none;text-decoration-style:solid;text-decoration-color:#000000;letter-spacing:normal;word-spacing:normal;text-transform:none;direction:ltr;block-progression:tb;writing-mode:lr-tb;baseline-shift:baseline;text-anchor:start;white-space:normal;clip-rule:nonzero;display:inline;overflow:visible;visibility:visible;opacity:1;isolation:auto;mix-blend-mode:normal;color-interpolation:sRGB;color-interpolation-filters:linearRGB;solid-color:#000000;solid-opacity:1;fill:#0085a8;fill-opacity:1;fill-rule:nonzero;stroke:none;stroke-width:2.80999994;stroke-linecap:round;stroke-linejoin:round;stroke-miterlimit:12.0257225;stroke-dasharray:none;stroke-dashoffset:0;stroke-opacity:1;color-rendering:auto;image-rendering:auto;shape-rendering:auto;text-rendering:auto;enable-background:accumulate"
       d="m 82.326887,979.02831 c 14.713932,9.75135 34.588363,5.72138 44.339703,-8.99254 9.75134,-14.71393 5.71975,-34.58944 -8.99418,-44.34079 -14.71392,-9.75134 -34.587807,-5.71867 -44.339151,8.99526 -9.751338,14.71393 -5.720296,34.58673 8.993628,44.33807 z"
       id="circle8982-7-3-4-1-3-7-6-5-6-39"
       inkscape:connector-curvature="0"
       sodipodi:nodetypes="sssss" />
    <path
       inkscape:connector-curvature="0"
       style="opacity:1;fill:#00b2e1;fill-opacity:1;fill-rule:nonzero;stroke:none;stroke-width:2.80999994;stroke-linecap:round;stroke-linejoin:round;stroke-miterlimit:12.0257225;stroke-dasharray:none;stroke-dashoffset:0;stroke-opacity:1"
       d="m 99.763672,923.17076 c -9.364854,0.0808 -18.519589,4.66528 -24.089844,13.07031 -8.912409,13.44805 -5.242974,31.5329 8.205078,40.44531 13.448051,8.91241 31.532904,5.24492 40.445314,-8.20313 8.91241,-13.44805 5.24297,-31.5329 -8.20508,-40.44531 -5.04302,-3.34215 -10.73656,-4.91566 -16.355468,-4.86718 z"
       id="circle8982-7-3-4-1-3-7-6-5-6-39-2" />
  </g>
</svg>
